{
  "format": "web-program-pre1",
  "manifest": [
    {
      "path": "7081c5734197367df80b2243063a0e42f66906ce.js",
      "where": "client",
      "type": "js",
      "cacheable": true,
      "url": "/7081c5734197367df80b2243063a0e42f66906ce.js",
      "size": 458617,
      "hash": "7081c5734197367df80b2243063a0e42f66906ce"
    },
    {
      "path": "420c75bf1fa076610c55e11445c731c1987ce265.css",
      "where": "client",
      "type": "css",
      "cacheable": true,
      "url": "/420c75bf1fa076610c55e11445c731c1987ce265.css?meteor_css_resource=true",
      "size": 19309,
      "hash": "420c75bf1fa076610c55e11445c731c1987ce265"
    },
    {
      "path": "app/crossdomain.xml",
      "where": "client",
      "type": "asset",
      "cacheable": false,
      "url": "/crossdomain.xml",
      "size": 189,
      "hash": "8dd8f862082d98bd24c6c7021f73bd1940da499b"
    },
    {
      "path": "app/images/ajax-loader.gif",
      "where": "client",
      "type": "asset",
      "cacheable": false,
      "url": "/images/ajax-loader.gif",
      "size": 673,
      "hash": "f2af060f1cadbc9065c8c465c648dc01be67cc12"
    },
    {
      "path": "head.html",
      "where": "internal",
      "type": "head",
      "hash": "b4d316968c75e6e9c91686c3453dbd0a997947c6"
    }
  ]
}